<svg xmlns="http://www.w3.org/2000/svg" width="105.253" height="80.174" viewBox="0 0 105.253 80.174">
  <g id="Group_317" data-name="Group 317" transform="translate(-2577.944 -509.851)">
    <path id="Path_1323" data-name="Path 1323" d="M2599.739,543.046a3.528,3.528,0,0,0-1.588-4.281c-1.609-1.133-2.67,1.731-2.241,3.005.276.82-1.015-1.033-1.825-.729-.4.15-3.026-.128-4.126,1.164-1.6,1.878-.771,2.8-.958,3.867-.457,2.609-1.31,1.519-.754,3.038a4.774,4.774,0,0,0,4.987,3.375c3-.225,3.143-1.128,3.844-1.933.468-.538,1.263.618,1.76,1.13a44.767,44.767,0,0,0,12.5,9.04c1.815.882,4.6,1.547,6.222,2.75,1.774,1.317,2.253,3.2,3.94,4.63,2.5,2.111,5.348,4.922,7.9,6.134-.778,2.8-.5,6.291-1.469,8.653-.179.436-1.172.309-1.532.613-.927.785-2.307.194-3.481-.118s-2.925.254-2.656,1.438l2.153.7a7.529,7.529,0,0,0-2.259,2.966c.979.485,3.139.505,4.14,1.615,1.281,2.032,3.108.989,5.509,1.1,3.23-.716,1.678-3.717,3.664-5.716a51.436,51.436,0,0,0,5.4-5.834,7.938,7.938,0,0,1,1.766-1.578c.426-.184,2.826,1.471,3.277,1.578,2.043.483,3.26.967,4.623.887.7.621.47,1.349,1.122,2.022,4.015,4.148,10.7,3.995,16.322,2.7a39.93,39.93,0,0,1,5.371-1.071,40.884,40.884,0,0,1,4.895.027,54.258,54.258,0,0,0,6.615-.2,7.087,7.087,0,0,0,3.881-1.2c1.07-.863,2.9-2.124,2-3.16-1.727-1.982-5.253-1.389-6.631-1.961-1.159-.482-2.282-1.9-3.5-2.195a12.9,12.9,0,0,0-4.931,1.111c-2.442,1.979-6.36.523-6.3,1.75a30.525,30.525,0,0,1,3.141-2.8c5.438-4.956,4.607-14.576.757-20.845-4.936-8.036-12.187-6.5-19.519-5.881.758-2.06.794-5.326-3.61-5.625,4.537-2.891,6.6-8.878,5.485-14.142s-3.725-11.33-8.51-13.789-10.854-2.247-16.211-1.765c-4.6.414-10.849,3.565-13.47,7.364a15.019,15.019,0,0,0-2.908,8.249c.017.905.406,2.659-.02,3.459a4.116,4.116,0,0,1-1.362,1.305,15.789,15.789,0,0,0-4.717,12.085,12.088,12.088,0,0,0-6.387-1.879" transform="translate(-6.419 -2.133)" fill="#fff"/>
    <g id="Group_259" data-name="Group 259" transform="translate(2577.944 509.851)">
      <path id="Path_1324" data-name="Path 1324" d="M2687.361,527.969a5.261,5.261,0,0,0,.807,6.287.549.549,0,0,0,.776-.776,4.145,4.145,0,0,1-.635-4.958A.549.549,0,0,0,2687.361,527.969Z" transform="translate(-2646.899 -521.174)" fill="#e89c62"/>
      <path id="Path_1325" data-name="Path 1325" d="M2702.352,534.248a.553.553,0,0,0-.75.2,6,6,0,0,0,.818,6.277.552.552,0,0,0,.776,0,.561.561,0,0,0,0-.776,4.856,4.856,0,0,1-.646-4.947A.565.565,0,0,0,2702.352,534.248Z" transform="translate(-2656.031 -525.279)" fill="#e89c62"/>
      <path id="Path_1326" data-name="Path 1326" d="M2717.9,540.946a.559.559,0,0,0-.548.549,7.059,7.059,0,0,0,2.278,5.584c.522.473,1.3-.3.776-.776a6,6,0,0,1-1.958-4.808A.554.554,0,0,0,2717.9,540.946Z" transform="translate(-2666.349 -529.572)" fill="#e89c62"/>
      <path id="Path_1327" data-name="Path 1327" d="M2671.156,567.158c-.035-.059-.065-.119-.095-.179v-.006c-.012-.035-.025-.07-.036-.106a.549.549,0,0,0-1.058.292,2.826,2.826,0,0,0,1.452,1.643,1.615,1.615,0,0,0,.074.305,1.717,1.717,0,0,0,.077.988,1.62,1.62,0,0,0,1.094,1.023c1.061.243,1.751-.718,1.937-1.636a3.393,3.393,0,0,0-.655-3.137.561.561,0,0,0-.665-.086,1.962,1.962,0,0,0-.359.324.65.65,0,0,0-.4.156,3.87,3.87,0,0,0-.873.934l-.091-.058c-.027-.024-.055-.046-.082-.071-.05-.045-.1-.093-.144-.143q-.031-.034-.061-.069l-.035-.042.03.038C2671.231,567.317,2671.175,567.192,2671.156,567.158Zm1.946,2.874h0l-.028.009Z" transform="translate(-2636.292 -545.579)" fill="#e89c62"/>
      <path id="Path_1328" data-name="Path 1328" d="M2699.6,577.762a.129.129,0,0,0-.018-.024l.01.015Z" transform="translate(-2655.091 -552.907)" fill="#e89c62"/>
      <path id="Path_1329" data-name="Path 1329" d="M2697.063,573.726a.549.549,0,0,0-1.058-.292,2.178,2.178,0,0,0,1.686,2.773c0,.012-.005.025-.006.037a1.952,1.952,0,0,0,.88,1.9,1.583,1.583,0,0,0,.376.146,1.2,1.2,0,0,0,1.59-.425,1.257,1.257,0,0,0,.059-.112,3.068,3.068,0,0,0,.173-2.243c-.033-.183-.075-.365-.125-.545a2.19,2.19,0,0,0-.273-.718,1.047,1.047,0,0,0-1.173-.153.6.6,0,0,0-.395.158,4.217,4.217,0,0,0-.74.909l-.08,0-.02,0c-.035-.006-.07-.014-.1-.023-.019,0-.129-.039-.178-.056l-.039-.019c-.031-.016-.063-.033-.093-.052s-.069-.044-.1-.066l0,0c-.051-.047-.1-.094-.149-.146l-.009-.01c0,.005.008.011.006.013s-.005-.01-.014-.022-.022-.028-.01-.015l-.045-.063c-.04-.064-.074-.13-.108-.2-.011-.033-.024-.065-.034-.1-.021-.07-.035-.142-.051-.213l0-.017c0-.035,0-.07-.005-.1,0-.07.011-.14.01-.209v.02l0-.012C2697.038,573.816,2697.05,573.771,2697.063,573.726Zm2.492,2.092h0l.021-.013h0Zm.037-.01h0l-.007,0Zm-.4.191,0,0h.018a3.366,3.366,0,0,1,.008.337c0,.048-.006.1-.01.145h0c-.005.031-.01.061-.017.092s-.019.065-.028.1c0-.018-.01-.035-.014-.053s0-.022-.005-.035v-.02c-.007-.078-.015-.156-.02-.233-.006-.1,0-.2,0-.3C2699.15,576.018,2699.173,576.011,2699.193,576Z" transform="translate(-2652.769 -549.924)" fill="#e89c62"/>
      <path id="Path_1330" data-name="Path 1330" d="M2698.938,575.325c-.006.045,0,.108,0,0Z" transform="translate(-2654.68 -551.376)" fill="#e89c62"/>
      <path id="Path_1331" data-name="Path 1331" d="M2677.155,603.877a11.778,11.778,0,0,0,7.166,3.85,7.289,7.289,0,0,0,6.677-3.209,13.158,13.158,0,0,0,1.8-3.852.549.549,0,0,0-1.058-.292c-.8,2.658-2.4,5.446-5.3,6.128-3.261.766-6.317-1.175-8.507-3.4C2677.435,602.6,2676.659,603.373,2677.155,603.877Z" transform="translate(-2640.765 -567.019)" fill="#e89c62"/>
      <path id="Path_1332" data-name="Path 1332" d="M2674.139,541.9a3.23,3.23,0,0,0-1.8-1.206,15.592,15.592,0,0,0,4.871-11.988,18.893,18.893,0,0,0-6.408-13.031,22.877,22.877,0,0,0-29.183-1.091,22.293,22.293,0,0,0-5.232,5.61,12.6,12.6,0,0,0-2.248,7.516,8.758,8.758,0,0,0,.367,1.963c.208.673,1.267.386,1.058-.292-1.5-4.875,2.029-9.861,5.5-12.934a21.81,21.81,0,0,1,27.546-1.167,18.639,18.639,0,0,1,7.319,11.6,14.7,14.7,0,0,1-3.787,12.5,12.265,12.265,0,0,1-1.255,1.121.651.651,0,0,0-.267.435c-.323.379-.037,1.107.525.894a1.984,1.984,0,0,1,2.45,1.32,3.93,3.93,0,0,1-.139,3.453,4.174,4.174,0,0,1-2.712,1.521,11.529,11.529,0,0,1-4.233.126.573.573,0,0,0-.635.3.488.488,0,0,0-.456.154c-5.468,5.645-13.829,6.191-21.191,5.335-3.659-.426-7.441-1.077-10.325-3.549a12.121,12.121,0,0,1-4.288-8.223,11.551,11.551,0,0,1,4.162-9.687c.549-.445-.231-1.217-.776-.776a12.563,12.563,0,0,0-4.5,9.082,11.814,11.814,0,0,0,.059,1.881,7.729,7.729,0,0,0-4.844-1.258.563.563,0,0,0-.549.549.553.553,0,0,0,.549.549,6.69,6.69,0,0,1,4.819,1.483.673.673,0,0,0,.28.14,13.511,13.511,0,0,0,7.241,8.964,20.975,20.975,0,0,0,5.976,1.654,40.951,40.951,0,0,0,13.053.187,20.209,20.209,0,0,0,11.1-5.554.568.568,0,0,0,.112-.167,13.223,13.223,0,0,0,3.983,0,6.983,6.983,0,0,0,3.2-1.2A4.674,4.674,0,0,0,2674.139,541.9Z" transform="translate(-2606.633 -509.851)" fill="#e89c62"/>
      <path id="Path_1333" data-name="Path 1333" d="M2751.238,604.839a1.283,1.283,0,0,1-.154.087l-.078.025a1.233,1.233,0,0,1-.126.027,1.341,1.341,0,0,1-.18,0,1.269,1.269,0,0,1-.2-.051.552.552,0,0,0-.675.383.563.563,0,0,0,.383.675,1.841,1.841,0,0,0,1.955-.515,1.865,1.865,0,0,0,.186-2.153.549.549,0,1,0-.947.554c.02.034.04.068.057.1l.005.015a1.305,1.305,0,0,1,.042.181,1.552,1.552,0,0,1,0,.2c-.007.04-.014.079-.025.118s-.017.054-.027.081c-.028.052-.057.1-.089.151l0,.005c-.021.023-.043.045-.065.067s-.049.04-.07.062l.018-.018Z" transform="translate(-2686.943 -568.957)" fill="#e89c62"/>
      <path id="Path_1334" data-name="Path 1334" d="M2753.728,607.87c.041-.028.076-.076,0,0Z" transform="translate(-2689.43 -571.991)" fill="#e89c62"/>
      <path id="Path_1335" data-name="Path 1335" d="M2615.6,605.721a49.315,49.315,0,0,1-8.129-3.823c-2.476-1.41-4.977-2.861-7.319-4.485a12.321,12.321,0,0,1-3.259-3.11.571.571,0,0,0-.844-.109c.055-.085.109-.171.157-.26a.549.549,0,0,0-.948-.554,3.011,3.011,0,0,1-.639.833c-.068.065-.14.127-.212.188l-.032.028-.035.024-.092.064a3.616,3.616,0,0,1-.506.286l-.021.011-.024.009c-.042.016-.084.032-.127.046-.085.029-.171.054-.258.075l-.131.028-.084.014-.085.007c-.045,0-.088,0-.132.005-.088,0-.176,0-.264-.011h-.015l-.023,0c-.043-.009-.087-.017-.13-.027-.077-.018-.152-.043-.227-.069a2.825,2.825,0,0,0-.046-2.011,2.325,2.325,0,0,0,.969-1.467,3.608,3.608,0,0,0-.252-2.024,3.441,3.441,0,0,0,1.824-1.6,2.417,2.417,0,0,0,.207-1.574.514.514,0,0,0,.211-.737c-.422-.709-.764-1.774-.106-2.457a1.049,1.049,0,0,1,.906-.364,1.631,1.631,0,0,1,.928.807c.972,1.527.607,3.551.289,5.221a.569.569,0,0,0,.01.261l-.011.013a7.533,7.533,0,0,0-1.319,3.7.551.551,0,0,0,.549.549.562.562,0,0,0,.548-.549c.006-.078.015-.155.023-.233l.006-.052c0-.031.009-.061.014-.092.021-.135.047-.269.076-.4a6.891,6.891,0,0,1,.253-.87c.023-.064.047-.128.073-.191.014-.036.029-.072.044-.109-.018.042-.012.031.013-.03.062-.133.124-.265.192-.394a7.131,7.131,0,0,1,.473-.773.488.488,0,0,0,.061-.389.558.558,0,0,0,.051-.147c.347-1.814.656-3.8-.123-5.548a2.951,2.951,0,0,0-2.006-1.852,2.23,2.23,0,0,0-2.211,1.186,2.715,2.715,0,0,0-.246,1.778,4.826,4.826,0,0,0-1.881-.465,5.168,5.168,0,0,0-2.917.455,4.219,4.219,0,0,0-1.935,1.863v0a2.692,2.692,0,0,0-.047,2.905,2.8,2.8,0,0,0-1.272,2.38,2.855,2.855,0,0,0,1.736,2.487,2.688,2.688,0,0,0,3.625,2.18,2.373,2.373,0,0,0,.721-.516,3.593,3.593,0,0,0,4.219-1.38.471.471,0,0,0,.076.411c1.579,2.325,4.008,3.781,6.354,5.225,2.67,1.643,5.355,3.275,8.171,4.658a43.543,43.543,0,0,0,4.837,2.039C2615.972,607.012,2616.26,605.952,2615.6,605.721Zm-25.129-10.371a1.582,1.582,0,0,1-2.08-1.578.552.552,0,0,0-.4-.529,1.679,1.679,0,0,1-.144-3.245.554.554,0,0,0,.241-.917,1.6,1.6,0,0,1-.251-2.137.534.534,0,0,0,.083-.188,2.163,2.163,0,0,1,.6-.693,4.761,4.761,0,0,1,.97-.648,4.974,4.974,0,0,1,2.875-.182c.745.124,1.586.676,1.531,1.523a2.1,2.1,0,0,1-1.475,1.633c-.371-.4-1.133.113-.852.691.4.831,1.086,2.681-.309,3.014a.555.555,0,0,0-.242.917A1.616,1.616,0,0,1,2590.468,595.35Z" transform="translate(-2582.776 -555.324)" fill="#e89c62"/>
      <path id="Path_1336" data-name="Path 1336" d="M2793.683,639.069a4,4,0,0,0-2.633-1.915,10.93,10.93,0,0,0-2.115-.389c-.725-.065-1.43.029-2.151.013-.686-.016-.924-.713-1.361-1.137a4.16,4.16,0,0,0-1.473-.9,6.324,6.324,0,0,0-4.271.176,18.244,18.244,0,0,0-2.249.967,1.991,1.991,0,0,0-.888.814,2.878,2.878,0,0,0-.727-.229,7.716,7.716,0,0,0-2.169-.091,20.854,20.854,0,0,0,2.978-3.2,12,12,0,0,0,1.874-3.716,14.8,14.8,0,0,0,.442-5.034c-.357-5.9-2.38-12.638-8.091-15.447a15.287,15.287,0,0,0-5.193-1.308c-2-.214-4-.367-6-.546-.7-.063-.7,1.034,0,1.1q2.5.224,4.994.449a19.382,19.382,0,0,1,4.62.83,11.478,11.478,0,0,1,5.872,5.029,20.806,20.806,0,0,1,2.6,8.708,17.766,17.766,0,0,1-.024,4.69,10.529,10.529,0,0,1-1.489,3.877c-1.613,2.571-4.087,4.491-6.465,6.314-.553.424-.007,1.377.554.948.739-.566,1.476-1.139,2.2-1.732a.541.541,0,0,0,.567.222,6.419,6.419,0,0,1,2.325-.052c.243.041.671.071.816.308a1.409,1.409,0,0,1,.056.792,9.691,9.691,0,0,1-1.342,4.153.533.533,0,0,0-.078.269,9.555,9.555,0,0,1-3.589,1.259,46.355,46.355,0,0,1-4.8.614,48.649,48.649,0,0,1-4.924.132,16.437,16.437,0,0,1-3.769-.457,6.962,6.962,0,0,1-3.175-1.7.531.531,0,0,0-.077-.294,7.905,7.905,0,0,1-.157-7.235,13.354,13.354,0,0,1,4.928-5.377c.587-.387.038-1.337-.554-.948a14.261,14.261,0,0,0-5.441,6.039,9.084,9.084,0,0,0,.079,7.71.542.542,0,0,0,.114.53c1.789,2.078,4.627,2.653,7.241,2.8a46.79,46.79,0,0,0,10.178-.641,10.641,10.641,0,0,0,4.832-1.713.575.575,0,0,0,.219-.58,10.984,10.984,0,0,0,1.015-2.371,8.526,8.526,0,0,0,.411-2.651,2.33,2.33,0,0,0-.066-.447.481.481,0,0,0,.173-.409c-.012-.368.77-.594,1.045-.721a14.439,14.439,0,0,1,1.9-.748,4.929,4.929,0,0,1,3.274,0,2.924,2.924,0,0,1,1.152.84,3.022,3.022,0,0,0,1.149,1.083,4.39,4.39,0,0,0,1.744.081,9.662,9.662,0,0,1,1.934.141,4.639,4.639,0,0,1,2.768,1.218c.69.821.185,1.76-.528,2.356a8.168,8.168,0,0,1-3.1,1.4,17.615,17.615,0,0,1-3.573.578,45.987,45.987,0,0,1-8.4-.479c-.665-.08-.668.869-.146,1.078l.117.047a.462.462,0,0,0,.35.011,43.556,43.556,0,0,0,8.238.431,18.435,18.435,0,0,0,4.165-.742,8.041,8.041,0,0,0,3.363-1.769A2.671,2.671,0,0,0,2793.683,639.069Z" transform="translate(-2688.645 -571.542)" fill="#e89c62"/>
      <path id="Path_1337" data-name="Path 1337" d="M2696.617,671.757a60.567,60.567,0,0,1,4.514-17.051c.275-.642-.67-1.2-.948-.554a62.334,62.334,0,0,0-4.663,17.605C2695.441,672.458,2696.54,672.452,2696.617,671.757Z" transform="translate(-2652.511 -601.188)" fill="#e89c62"/>
      <path id="Path_1338" data-name="Path 1338" d="M2703.862,705.861a3.061,3.061,0,0,1-1.855.007,2.868,2.868,0,0,1-.833-.381,2.031,2.031,0,0,1-.346-.258,3.579,3.579,0,0,1-.378-.391.553.553,0,0,0-.776,0,.561.561,0,0,0,0,.776,4.3,4.3,0,0,0,4.478,1.305.561.561,0,0,0,.384-.675A.555.555,0,0,0,2703.862,705.861Z" transform="translate(-2655.05 -633.415)" fill="#e89c62"/>
      <path id="Path_1339" data-name="Path 1339" d="M2685.863,706.991a9.928,9.928,0,0,1-.8,3.25,3.489,3.489,0,0,1-.94,1.211,1.943,1.943,0,0,1-.768.4c-.092.018-.7.024-.576-.26a.551.551,0,0,0-.862-.665c-.333.312-.775.775-1.267.783-.267,0-.642-.263-.442-.53.41-.585-.532-1.109-.948-.554-.256.365-1.019.72-1.38.286a.744.744,0,0,1-.013-.745c.164-.064.327-.133.488-.209a.552.552,0,0,0-.277-1.022,1.474,1.474,0,0,0-.686.248,5.349,5.349,0,0,1-1.475.342,5.771,5.771,0,0,1-.965,0,1.649,1.649,0,0,1-.45-.062c-.181-.079-.114.012-.136-.2-.047-.458.405-.95.706-1.233a7.266,7.266,0,0,1,1.294-.911c.444-.264.285-1.064-.277-1.022a3.53,3.53,0,0,1-2.01-.41c-.2-.114-.562-.248-.384-.519s.688-.281.96-.307a11.654,11.654,0,0,1,4.649.525c.674.215.962-.844.291-1.058a12.835,12.835,0,0,0-3.35-.6c-.969-.042-2.359-.13-3.163.516a1.315,1.315,0,0,0,.086,2.165,4.168,4.168,0,0,0,1.367.64,4.4,4.4,0,0,0-.592.582,2.4,2.4,0,0,0-.6,2.184c.3.831,1.435.839,2.169.83a6.381,6.381,0,0,0,1.157-.122,1.619,1.619,0,0,0,.286.985,1.755,1.755,0,0,0,2.272.469,1.718,1.718,0,0,0,.813.723,1.956,1.956,0,0,0,1.887-.364,1.407,1.407,0,0,0,.994.618,2.9,2.9,0,0,0,2.4-1.133,8.7,8.7,0,0,0,1.638-4.825C2687.046,706.292,2685.948,706.3,2685.863,706.991Z" transform="translate(-2637.948 -632.792)" fill="#e89c62"/>
      <path id="Path_1340" data-name="Path 1340" d="M2679.423,662.636c.628.319,1.184-.627.554-.947a26.406,26.406,0,0,1-9.914-8.74c-.393-.582-1.344-.034-.948.554A27.523,27.523,0,0,0,2679.423,662.636Z" transform="translate(-2635.707 -600.449)" fill="#e89c62"/>
      <path id="Path_1341" data-name="Path 1341" d="M2727.89,673.807a10.975,10.975,0,0,1-6.167-1.631.509.509,0,0,0-.334-.081,67.169,67.169,0,0,0,5.095-9.382c.283-.64-.662-1.2-.948-.554a66.647,66.647,0,0,1-10.062,16.09c-.454.536.319,1.316.776.776a68.3,68.3,0,0,0,4.678-6.224.516.516,0,0,0,.241.322,12.03,12.03,0,0,0,6.721,1.781C2728.594,674.879,2728.6,673.782,2727.89,673.807Z" transform="translate(-2665.081 -606.267)" fill="#e89c62"/>
      <path id="Path_1342" data-name="Path 1342" d="M2582.513,583.678a.56.56,0,0,0-.2-.751l-3.551-2.149a.549.549,0,0,0-.554.948l3.551,2.149A.556.556,0,0,0,2582.513,583.678Z" transform="translate(-2577.944 -554.789)" fill="#e89c62"/>
      <path id="Path_1343" data-name="Path 1343" d="M2591.1,575.9a.549.549,0,1,0,.776-.776c-.223-.2-.439-.411-.642-.633-.1-.111-.2-.224-.3-.339-.054-.064-.106-.129-.159-.194l-.017-.022-.065-.086a9.437,9.437,0,0,1-.943-1.564.552.552,0,0,0-.751-.2.563.563,0,0,0-.2.751A9.891,9.891,0,0,0,2591.1,575.9Z" transform="translate(-2584.789 -549.278)" fill="#e89c62"/>
      <path id="Path_1344" data-name="Path 1344" d="M2601,571.191a.563.563,0,0,0,.383-.675,8.267,8.267,0,0,1,.406-3.891.549.549,0,0,0-1.058-.291,9.439,9.439,0,0,0-.406,4.474A.552.552,0,0,0,2601,571.191Z" transform="translate(-2592.072 -545.418)" fill="#e89c62"/>
    </g>
  </g>
</svg>
