<svg xmlns="http://www.w3.org/2000/svg" width="76" height="94.772" viewBox="0 0 76 94.772">
  <g id="Group_316" data-name="Group 316" transform="translate(-3295.002 -454.296)">
    <path id="Path_1345" data-name="Path 1345" d="M3360.841,465.089c.473-1.529-.668-2.971-1.851-4.05a13.915,13.915,0,0,0-4.552-2.894,33.309,33.309,0,0,0-15.894-1.205,21.728,21.728,0,0,0-13.521,8.623,15.949,15.949,0,0,0-.893,15.677,12.808,12.808,0,0,1,1.542,3.4,10.051,10.051,0,0,1-.057,2.8c-.508,5.192.732,11.734,3.646,16.062s6.518,5.739,11.731,5.553c-.031,1.408.637,2.888,0,4.144a30.678,30.678,0,0,0-11.5,4.3,27.568,27.568,0,0,0-5.9,4.532,50.334,50.334,0,0,0-5.422,7.013c-.4-2.885-1.588-7.429-3.388-9.718-.394-.5-.425.331-1.013.174-.659-.175-.138-1.351-.013-2.021.411-2.2,1.316-4.287,1.71-6.491s.239-5.193-1.3-6.823a1.827,1.827,0,0,0-1.947-.229c-.687.228-1,1-1.229,1.692l-1.472,4.427a3.518,3.518,0,0,0-1.388-3.076c-.971-.663-2.867-1.816-3.642-.933s-.1,3.726.971,4.2a4.03,4.03,0,0,0-4.252-.7c-1.079.663-.727,2.291-.214,3.45a2.143,2.143,0,0,0-3.009,3.006c-1.015.446-1.02,2.01-.283,2.839s1.481,2.381,2.528,2.014a3.1,3.1,0,0,1,3.254,1c.59.9.333,2.072.534,3.126.941,4.947,3.079,9.381,5.977,15.1,1.446,2.856,3.22,5.906,5.906,7.074s6.209-1.015,7.988-3.342c.153,1.381.8,3.4.956,4.783a2.67,2.67,0,0,0,.338,1.221c.552.821,1.752.777,2.733.648a177.972,177.972,0,0,1,35.118-1.087c1.532.1,3.242.174,4.408-.824.5-.429,2.036-1.137,2.338-1.725a17.535,17.535,0,0,0,2.2-9.863,13.7,13.7,0,0,0-1.566-5.177c.156-1.651.825-3.245.779-4.9-.062-2.256-1.9-6.211-3.207-8.05a6.988,6.988,0,0,0-3.75-2.818c-2.776-4.565-3.881-6.684-9.792-7.744.053-1.318-.367-2.231-.315-3.549a13.909,13.909,0,0,0,5.933-7.932,3.73,3.73,0,0,1,.733-1.924,4.021,4.021,0,0,1,1.732-.775c4.1-1.306,5.886-7.128,3.228-10.508,1.691-3.75,2.555-9.152.029-12.4-1.642-2.111-2.527-4.238-4.938-6.1" transform="translate(-1.48 -1.47)" fill="#fff"/>
    <g id="Group_261" data-name="Group 261" transform="translate(3295.002 454.296)">
      <path id="Path_1346" data-name="Path 1346" d="M3475.741,561.425a12.2,12.2,0,0,0,4.768-4.671,11.921,11.921,0,0,0,1.247-3.131c.123-.517.106-1.249.646-1.516.485-.24,1.036-.346,1.53-.582a8.022,8.022,0,0,0,4.08-4.741c.615-1.915.52-4.51-1.141-5.9a2.867,2.867,0,0,0-2.957-.495,2.392,2.392,0,0,0-1.65,2.338c.054.609,1.013.615.958,0a1.5,1.5,0,0,1,1.216-1.509,1.977,1.977,0,0,1,2.138.726c1.193,1.453.969,3.721.227,5.322a6.977,6.977,0,0,1-3.981,3.686,3.341,3.341,0,0,0-1.295.6,2.566,2.566,0,0,0-.617,1.465,10.933,10.933,0,0,1-1,2.832,11.3,11.3,0,0,1-4.654,4.751.415.415,0,0,0-.231.447.449.449,0,0,0-.572.45l.149,4.745c.019.615.977.617.958,0l-.149-4.745a.17.17,0,0,0,0-.022A.462.462,0,0,0,3475.741,561.425Z" transform="translate(-3417.164 -512.76)" fill="#e89c62"/>
      <path id="Path_1347" data-name="Path 1347" d="M3352.5,556.05c.343-.514-.486-.994-.827-.483-4.259,6.367-7.022,13.636-11.532,19.84.167-1.354.235-2.724.342-4.082q.2-2.574.407-5.147a.5.5,0,0,0,0-.093c.059-.037.119-.073.176-.113a3.561,3.561,0,0,0,1.109-1.049,3.852,3.852,0,0,0,.36-1.49l.1-.817c.035-.3.1-.626-.144-.867a1.248,1.248,0,0,0-.886-.219l-.91-.041-1.95-.088a.469.469,0,0,0-.206.034.4.4,0,0,0-.15-.162,13.047,13.047,0,0,1,1.482-1.525.516.516,0,0,0,.137.015.509.509,0,0,0,.183-.041l.125.088c.13.093.261.188.389.284.256.192.5.39.754.6q.776.646,1.487,1.363a.479.479,0,0,0,.677-.677,22.073,22.073,0,0,0-2.2-1.927c-.12-.092-.243-.182-.364-.271.275-.057.547-.141.814-.221q.808-.239,1.6-.522a33.43,33.43,0,0,0,3.158-1.307c1.976-.938,3.821-2.359,5.984-2.834.6-.132.347-1.055-.255-.923-2.112.463-3.9,1.8-5.817,2.739a30.962,30.962,0,0,1-3.117,1.327q-.757.275-1.528.511a4.349,4.349,0,0,1-1.639.329.491.491,0,0,0-.056,0,.471.471,0,0,0,.026-.169q-.082-2.913-.162-5.826a.483.483,0,0,0-.606-.462c-4.983,1.542-10.058-2.074-12.286-6.367-2.824-5.442-2.258-11.985-2.048-17.9l.24-6.757c.022-.616-.935-.615-.957,0q-.11,3.1-.219,6.193c-.109,3.092-.28,6.194-.122,9.287a24.31,24.31,0,0,0,2.074,9.248,14.232,14.232,0,0,0,5.233,5.869,10.3,10.3,0,0,0,7.751,1.511q.073,2.6.145,5.206a.475.475,0,0,0,.552.458.5.5,0,0,0-.018.1.57.57,0,0,0-.082.045.577.577,0,0,0-.274.128,13.422,13.422,0,0,0-1.318,1.259c.335-1.049.662-2.1.914-3.173a.492.492,0,0,0-.832-.447.405.405,0,0,0-.367-.159,9.168,9.168,0,0,0-5.123,2.2c-.33.261-.648.537-.958.823,0-.3-.227-.575-.571-.435a29.478,29.478,0,0,0-13.432,11.038,9.735,9.735,0,0,0-.762,1.225c-.472-1.566-.986-3.119-1.554-4.653q-.8-2.158-1.721-4.268a.421.421,0,0,0-.737-.064.523.523,0,0,0-.119-.008c-.139.007-.279.017-.418.026.241-1.7.891-3.307,1.25-4.979a31.063,31.063,0,0,0,.517-5.419c.054-1.509.03-3.2-.968-4.437a2.476,2.476,0,0,0-1.816-.982,2.1,2.1,0,0,0-1.654.856,5.467,5.467,0,0,0-.944,2.241,10.647,10.647,0,0,0-.258,2.3,11.69,11.69,0,0,0-1.877-2.206,3.323,3.323,0,0,0-3.141-.9,2.43,2.43,0,0,0-1.6,2.429,3.324,3.324,0,0,0,.285,1.292,3.123,3.123,0,0,0-2.467-.071,2.282,2.282,0,0,0-1.435,1.6,2.7,2.7,0,0,0,.193,1.569,2.617,2.617,0,0,0-1.956.76,3.35,3.35,0,0,0-.388,3.7,1.2,1.2,0,0,1-.369,0,.509.509,0,0,0-.54.22c-.652.922-.05,2.13.562,2.9a4.493,4.493,0,0,0,2.7,1.654,3.718,3.718,0,0,0,2.16-.309.388.388,0,0,0,.063.167,3.14,3.14,0,0,0,.959.92,2.923,2.923,0,0,0,.319.166.4.4,0,0,0-.011.05.512.512,0,0,0-.014.088,16.7,16.7,0,0,0,.112,3.42,17.422,17.422,0,0,0,1.129,3.638q1.49,3.971,3.286,7.818a46.613,46.613,0,0,0,3.618,6.827c1.234,1.788,2.94,3.46,5.178,3.8a6.17,6.17,0,0,0,6.142-2.887.479.479,0,0,0-.827-.483,5.212,5.212,0,0,1-4.967,2.457c-2.05-.222-3.625-1.8-4.733-3.418a45.709,45.709,0,0,1-3.392-6.369q-1.711-3.62-3.142-7.364a22.208,22.208,0,0,1-1.3-3.856,14.305,14.305,0,0,1-.16-3.3,21.6,21.6,0,0,1,9.9-2.958.51.51,0,0,0,.18-.043,79.267,79.267,0,0,1,4.688,14.782q.472,2.227.817,4.478c.093.607,1.016.349.923-.255a80.06,80.06,0,0,0-2.121-9.727.472.472,0,0,0,.419-.55.211.211,0,0,1,.016-.05c.03-.05.055-.109.082-.162.1-.193.211-.38.323-.565.215-.352.441-.7.674-1.038a27.531,27.531,0,0,1,2.493-3.133,28.567,28.567,0,0,1,6.065-5,28.072,28.072,0,0,1,3.683-1.9,19.7,19.7,0,0,0-2.015,2.43,20.669,20.669,0,0,0-3.609,9.685,19.5,19.5,0,0,0,.283,5.919c.122.6,1.045.348.923-.255a19.379,19.379,0,0,1,5.875-17.854,8.9,8.9,0,0,1,5.274-2.628.538.538,0,0,0,.129-.025c-.631,2.474-1.532,4.882-2.253,7.329a45.389,45.389,0,0,0-1.61,9.94,34.594,34.594,0,0,0,.211,6.837.481.481,0,0,0,.589.334.426.426,0,0,0,.306-.3.5.5,0,0,0,.727.082c6.072-5.266,9.362-12.773,13.133-19.684C3350.142,559.833,3351.26,557.9,3352.5,556.05Zm-53.7,7.752a3.532,3.532,0,0,1-2-1.093c-.389-.409-.971-1.181-.8-1.8a2.337,2.337,0,0,0,1.11-.275.485.485,0,0,0,.172-.655,2.684,2.684,0,0,1-.084-2.981,1.449,1.449,0,0,1,2.051-.231.481.481,0,0,0,.752-.58,3.108,3.108,0,0,1-.727-2.013,1.393,1.393,0,0,1,1.061-1.036c1.347-.389,2.555.637,3.51,1.445a.479.479,0,0,0,.677-.677c-.769-.827-1.692-1.807-1.591-3.027a1.506,1.506,0,0,1,2.254-1.19,7.06,7.06,0,0,1,2.57,2.587,4,4,0,0,1,.97,3.3,4.434,4.434,0,0,1-2.266,1.34.871.871,0,0,1-.408-.03,2.3,2.3,0,0,0-.333-.552.483.483,0,0,0-.818.339,1.168,1.168,0,0,0,.357.8,2.583,2.583,0,0,1-.175,1.255,3.458,3.458,0,0,1-.764,1.5,2.7,2.7,0,0,1-.909.5,5.314,5.314,0,0,1-.568.2,1.987,1.987,0,0,0-.209.051.475.475,0,0,0-.818.324A2.617,2.617,0,0,1,3298.8,563.8Zm3.086.624a2.438,2.438,0,0,1-.173-.18c-.025-.028-.115-.154-.03-.032-.027-.038-.055-.074-.081-.113a.565.565,0,0,0-.138-.139,3.323,3.323,0,0,0,1.25-2.037,5.257,5.257,0,0,0,2.03-.812,4.042,4.042,0,0,0,1.275-2.195,4.221,4.221,0,0,0,.2-1.043c.018,0,.034,0,.053.005a5.06,5.06,0,0,0,3.21-1.7.434.434,0,0,0,.145-.285,3.957,3.957,0,0,0-.359-2.949.4.4,0,0,0,.291-.437,8.152,8.152,0,0,1,.71-4.269,1.383,1.383,0,0,1,1.218-.888,1.851,1.851,0,0,1,1.343,1.126,8.5,8.5,0,0,1,.4,4.152,24.589,24.589,0,0,1-.549,4.777,47.064,47.064,0,0,0-1.2,4.884A22.638,22.638,0,0,0,3303,564.97l-.04-.007c-.041-.008-.082-.016-.123-.026a2.472,2.472,0,0,1-.239-.07c-.036-.012-.071-.027-.106-.04l-.049-.023a2.485,2.485,0,0,1-.231-.125c-.069-.042-.132-.087-.2-.133l-.032-.027C3301.953,564.488,3301.918,564.458,3301.885,564.426Zm1.116.545h0Zm37.427-2.537.823.037.433.019q-.02.17-.04.339-.041.344-.082.688a2.118,2.118,0,0,1-.275,1.013,3.227,3.227,0,0,1-.834.7,2.021,2.021,0,0,1-.952.384,1.05,1.05,0,0,1-.542-.109.547.547,0,0,0-.13-.1.54.54,0,0,1-.045-.037,1.524,1.524,0,0,1-.2-.953c-.021-.7-.024-1.4-.016-2.1a.492.492,0,0,0,.164.036Zm-3.875,2.707c.23-.8.476-1.587.725-2.377a.5.5,0,0,0,.1-.117c.074-.119.159-.231.237-.348,0,.362-.012.723-.009,1.085.006.523,0,1.056.052,1.576a1.965,1.965,0,0,0,.3.89,26.5,26.5,0,0,0-2.424,4.266q.068-.472.141-.943A32.1,32.1,0,0,1,3336.553,565.141Zm-1.288,15.654a.514.514,0,0,0-.052.054,34.508,34.508,0,0,1-.1-7.015.47.47,0,0,0,.119-.2,25.828,25.828,0,0,1,3.48-7.193,2.044,2.044,0,0,0,.977.113c.073-.009.144-.029.215-.045q-.184,2.33-.368,4.659c-.132,1.667-.19,3.363-.467,5.014a.486.486,0,0,0,.144.443A30.757,30.757,0,0,1,3335.265,580.8Z" transform="translate(-3295.002 -499.251)" fill="#e89c62"/>
      <path id="Path_1348" data-name="Path 1348" d="M3450.624,659.31a3.169,3.169,0,0,0,.824-2.347,2.323,2.323,0,0,0-1.732-1.721,3.685,3.685,0,0,1-1.237-.571c-.386-.338-.432-.714,0-1.035a17.5,17.5,0,0,1,1.571-.942l1.785-1.053a.479.479,0,0,0-.483-.827c-1.039.613-2.092,1.208-3.119,1.841-.735.452-1.311,1.176-.9,2.065a3.251,3.251,0,0,0,2.131,1.446,1.613,1.613,0,0,1,.953.668,1.265,1.265,0,0,1-.039,1.07,6.993,6.993,0,0,1-1.961,2.272l-2.58,2.358-5.276,4.823-5.98,5.466c-.456.417.223,1.093.677.678l10.494-9.592,2.638-2.411A18.5,18.5,0,0,0,3450.624,659.31Z" transform="translate(-3389.915 -588.027)" fill="#e89c62"/>
      <path id="Path_1349" data-name="Path 1349" d="M3495.64,645.361c-.158-.535-.389-1.037-.582-1.56a4.065,4.065,0,0,1-.171-1.889,17.287,17.287,0,0,0-2.25-10.749,11.86,11.86,0,0,0-4.365-4.24.452.452,0,0,0-.539.06c-.077-.228-.157-.455-.247-.682a12.165,12.165,0,0,0-2.49-3.957c-.426-.447-1.1.231-.677.677a12.26,12.26,0,0,1,3.129,7.1,20.715,20.715,0,0,1-1.11,8.7c-.433,1.334-.95,2.638-1.5,3.926a2.713,2.713,0,0,0-.629-.3.416.416,0,0,0,.365-.337,27.647,27.647,0,0,0,.6-9.486,25.9,25.9,0,0,0-2.579-8.954,7.858,7.858,0,0,0-3.084-3.428c-.542-.295-1.026.532-.484.827a6.778,6.778,0,0,1,2.623,2.863,21.2,21.2,0,0,1,1.588,3.967,26.91,26.91,0,0,1,1.124,8.9,26.454,26.454,0,0,1-.707,5.057.452.452,0,0,0,.179.492,3.067,3.067,0,0,0-.322-.046,3.277,3.277,0,0,0-3,1.909,6.749,6.749,0,0,0-.733,4.336,3.512,3.512,0,0,0,2.638,2.862,2.444,2.444,0,0,0,2.9-2.48.5.5,0,0,0-.072-.21,2.539,2.539,0,0,0,1.13-1.645,2.465,2.465,0,0,0-.478-2.416c-.031-.026-.062-.049-.095-.073a.441.441,0,0,0,.033-.224,2.1,2.1,0,0,0-.277-.867c2.123-4.89,3.846-10.369,2.453-15.618a12.615,12.615,0,0,1,5.608,8.223,16.738,16.738,0,0,1,.375,5.245,8.764,8.764,0,0,0-.078,1.789,6,6,0,0,0,.48,1.548,10.534,10.534,0,0,1,.738,3.308,26.6,26.6,0,0,1-.989,7.586c-.139.6.784.856.924.255a30.428,30.428,0,0,0,1.048-7.131A12.225,12.225,0,0,0,3495.64,645.361Zm-10.528-.077c-.023-.011-.053-.029,0,0Zm-1,1.244Zm.505-1.205a.077.077,0,0,1,.016-.013.164.164,0,0,1-.02.022l0,0A.114.114,0,0,1,3484.622,645.323Zm.023-.017h0a.093.093,0,0,1-.027.026A.333.333,0,0,0,3484.645,645.306Zm-1.987,5.178a2.521,2.521,0,0,1-1.926-1.989,5.615,5.615,0,0,1,.368-3.33,2.888,2.888,0,0,1,1.86-1.886,1.939,1.939,0,0,1,1.489.348c-.025.056-.049.113-.074.169a.5.5,0,0,0,.1.557,1.186,1.186,0,0,0-.792.744.4.4,0,0,0,0,.272,2.887,2.887,0,0,0-.609,2.224,1.653,1.653,0,0,0,1.274,1.282.351.351,0,0,0,0,.053A1.481,1.481,0,0,1,3482.658,650.484Zm1.827-2.547Zm1.023-1.575c0,.071-.01.142-.02.213,0,.013-.006.035-.007.04-.009.046-.016.092-.026.137a3.134,3.134,0,0,1-.118.4l-.008.023c-.014.034-.029.066-.045.1a2.368,2.368,0,0,1-.125.223,1.065,1.065,0,0,1-.417.4.483.483,0,0,0-.123.039l0,0h-.011c-.027,0-.057,0-.084,0h-.013c-.031-.006-.062-.015-.094-.022a.326.326,0,0,1-.044-.018l-.071-.041-.014-.007-.007-.007c-.021-.019-.042-.038-.062-.059s-.026-.028-.039-.042-.027-.036-.034-.046c-.031-.054-.062-.107-.089-.163l-.009-.02c-.014-.043-.028-.085-.039-.129s-.012-.058-.02-.087a.175.175,0,0,0-.007-.026.129.129,0,0,0,0-.024,1.741,1.741,0,0,1,0-.245.081.081,0,0,0,0-.019c0-.01.006-.022.01-.04.01-.045.02-.09.031-.135a1.925,1.925,0,0,1,.1-.286l.02-.041c.025-.05.049-.1.076-.15.044-.083.092-.164.141-.244.109-.176.227-.347.345-.516a.408.408,0,0,0,.059-.309l.023-.008.012,0h.162c.023.008.05.011.074.017s.057.018.086.026l.063.034a.583.583,0,0,1,.05.035.7.7,0,0,1,.175.244c.045.085.018.041.01.02.015.038.027.077.039.117s.021.079.03.12c0,.011.012.075.015.091A2.449,2.449,0,0,1,3485.509,646.363Z" transform="translate(-3420.11 -567.22)" fill="#e89c62"/>
      <path id="Path_1350" data-name="Path 1350" d="M3403.5,500.545a30.138,30.138,0,0,0,17.022-4.593,29.709,29.709,0,0,0,4.018-3.033c.46-.412-.219-1.088-.677-.677a29.183,29.183,0,0,1-15.522,7.121,28.681,28.681,0,0,1-4.84.225C3402.882,499.565,3402.883,500.522,3403.5,500.545Z" transform="translate(-3368.546 -480.04)" fill="#e89c62"/>
      <path id="Path_1351" data-name="Path 1351" d="M3416,488.576c.473-.4-.208-1.071-.677-.677-4.01,3.366-9.114,5-14.185,5.948-1.455.271-2.919.487-4.387.67-.6.075-.611,1.034,0,.958,5.327-.666,10.75-1.71,15.5-4.327A23.342,23.342,0,0,0,3416,488.576Z" transform="translate(-3363.957 -477.089)" fill="#e89c62"/>
      <path id="Path_1352" data-name="Path 1352" d="M3481.114,510.005q-.356-.637-.695-1.282a2.947,2.947,0,0,1-.541-1.436c.034-.616-.924-.614-.958,0a2.855,2.855,0,0,0,.436,1.467q.349.681.719,1.352.754,1.374,1.582,2.708a60.278,60.278,0,0,0,3.572,5.123.482.482,0,0,0,.678,0,.491.491,0,0,0,0-.677,57.82,57.82,0,0,1-3.346-4.805Q3481.808,511.247,3481.114,510.005Z" transform="translate(-3420.202 -490.055)" fill="#e89c62"/>
      <path id="Path_1353" data-name="Path 1353" d="M3375.4,474.458a9.886,9.886,0,0,1,.091-5.146,15.654,15.654,0,0,1,1.749-4.265,18.579,18.579,0,0,1,6.539-6.482,24.5,24.5,0,0,1,9.943-3.134,30.005,30.005,0,0,1,9.914.533c3.265.771,6.484,2.312,8.494,5.093.358.495,1.189.017.827-.484-3.977-5.5-11.685-6.6-18-6.2a26.721,26.721,0,0,0-10.644,2.8,19.9,19.9,0,0,0-7.387,6.572,16.917,16.917,0,0,0-2.255,4.906,11.144,11.144,0,0,0-.2,6.063C3374.655,475.3,3375.579,475.05,3375.4,474.458Z" transform="translate(-3348.872 -454.296)" fill="#e89c62"/>
      <path id="Path_1354" data-name="Path 1354" d="M3503.891,494.464a8.909,8.909,0,0,1,1.484,3.439,19.937,19.937,0,0,1-.481,8.051c-.124.6.8.859.924.255a21.115,21.115,0,0,0,.481-8.56,9.6,9.6,0,0,0-1.581-3.668,20.525,20.525,0,0,0-2.763-2.944c-.451-.419-1.13.257-.677.677A19.45,19.45,0,0,1,3503.891,494.464Z" transform="translate(-3435.322 -479.217)" fill="#e89c62"/>
      <path id="Path_1355" data-name="Path 1355" d="M3390.836,666.188a7.31,7.31,0,0,0-2.271-1.926c.24-4.97.551-10.244,3.492-14.461a11.593,11.593,0,0,1,2.7-2.77c.495-.357.018-1.189-.484-.827-4.254,3.074-5.816,8.314-6.34,13.306-.155,1.472-.234,2.951-.305,4.43a3.958,3.958,0,0,0-2.269.242,5.938,5.938,0,0,0-3.417,5.08,14.944,14.944,0,0,0,.231,4.014,19.434,19.434,0,0,0,1.136,4.251.487.487,0,0,0,.236.258,7.089,7.089,0,0,0-.552.525.489.489,0,0,0-.075.58.5.5,0,0,0,.54.22,4.8,4.8,0,0,0,.927-.332.6.6,0,0,0,.7-.259.686.686,0,0,0,.074-.2,5.055,5.055,0,0,0,.49-.4.479.479,0,0,0,.038-.629.508.508,0,0,0-.076-.069.466.466,0,0,0,.11-.42c-.339-1.647-.612-3.307-.806-4.978-.136-1.178-.395-2.841,1-3.36a2.539,2.539,0,0,1,2.967,1.258,7.934,7.934,0,0,1,.842,4.251,7.725,7.725,0,0,1-.232,2.216,3.041,3.041,0,0,1-.641,1.16.413.413,0,0,0-.135-.362,1.1,1.1,0,0,0-.73-.281.484.484,0,0,0-.462.352,2.924,2.924,0,0,0,.646,2.41.482.482,0,0,0,.752-.1.83.83,0,0,0,.08-.474.465.465,0,0,0,.26-.132,11.712,11.712,0,0,0,3.682-5.979,6.957,6.957,0,0,0-.173-3.54A9.585,9.585,0,0,0,3390.836,666.188Zm1.253,5.85a8.178,8.178,0,0,1-1.545,3.8,8.777,8.777,0,0,0,.12-1.177,10.206,10.206,0,0,0-.782-5.112,3.708,3.708,0,0,0-3.529-2.158,2.8,2.8,0,0,0-1.858.915,3.238,3.238,0,0,0-.659,2.208,25.887,25.887,0,0,0,.355,3.147c.16,1.094.354,2.183.574,3.266-.016.007-.033.013-.049.022-.168.1-.332.2-.492.307a19.236,19.236,0,0,1-1.376-6.543c-.062-1.963.4-4.09,2.133-5.252a3.308,3.308,0,0,1,2.4-.6,4.452,4.452,0,0,1,2.362,1.532,11.116,11.116,0,0,1,1.856,2.522A5.614,5.614,0,0,1,3392.089,672.038Z" transform="translate(-3354.145 -584.875)" fill="#e89c62"/>
      <path id="Path_1356" data-name="Path 1356" d="M3332.133,588.14a.482.482,0,0,0,.677,0,.489.489,0,0,0,0-.677,8.245,8.245,0,0,1-1.62-3.032.479.479,0,1,0-.923.255A9.286,9.286,0,0,0,3332.133,588.14Z" transform="translate(-3318.997 -542.645)" fill="#e89c62"/>
      <path id="Path_1357" data-name="Path 1357" d="M3347.285,584.308v-3.731a.479.479,0,0,0-.958,0v3.731A.479.479,0,0,0,3347.285,584.308Z" transform="translate(-3329.942 -539.946)" fill="#e89c62"/>
      <path id="Path_1358" data-name="Path 1358" d="M3354.969,588.451a14.377,14.377,0,0,1,1.367-1.4,12.632,12.632,0,0,1,1.5-1.153.479.479,0,0,0-.483-.827,14.669,14.669,0,0,0-3.056,2.705.479.479,0,0,0,.677.677Z" transform="translate(-3335.271 -543.273)" fill="#e89c62"/>
      <path id="Path_1359" data-name="Path 1359" d="M3454.976,545.182c-.385-.128-.681.2-.878.478a2.2,2.2,0,0,0-.369,1.289,2.236,2.236,0,0,0,.38,1.2.479.479,0,0,0,.139.333.493.493,0,0,0,.677,0c.009-.007.016-.015.024-.022a.446.446,0,0,0,.076-.069,2.807,2.807,0,0,0,.45-2.519A.8.8,0,0,0,3454.976,545.182Z" transform="translate(-3403.054 -516.147)" fill="#e89c62"/>
      <path id="Path_1360" data-name="Path 1360" d="M3419.718,547.142a.916.916,0,0,0-1.036.185,1.431,1.431,0,0,0-.355.956,5.82,5.82,0,0,0,.013.952c.035.365.042.837.395,1.053a.676.676,0,0,0,.9-.233.506.506,0,0,0,.252-.2,2.557,2.557,0,0,0,.352-1.833A1.149,1.149,0,0,0,3419.718,547.142Zm-.373.874h0l.009-.006,0,0Zm.008-.007h.006l-.008,0Z" transform="translate(-3378.946 -517.441)" fill="#e89c62"/>
      <path id="Path_1361" data-name="Path 1361" d="M3468.756,523.557a.48.48,0,0,0,.677,0,.494.494,0,0,0,0-.677,4.235,4.235,0,0,0-3.375-1.589.479.479,0,0,0,0,.958,3.85,3.85,0,0,1,.424.014l.083.009.023,0c.07.012.139.025.208.039a3.831,3.831,0,0,1,.409.114c.066.023.131.047.2.073l.019.008.107.05a3.832,3.832,0,0,1,.351.193c.06.037.119.076.177.117l.077.055c.011.009.013.009.011.008l.022.018A3.817,3.817,0,0,1,3468.756,523.557Zm-2.2-1.287Zm.837.227Z" transform="translate(-3411.121 -499.902)" fill="#e89c62"/>
      <path id="Path_1362" data-name="Path 1362" d="M3407.611,526.061a6.621,6.621,0,0,0-3.351,1.877.479.479,0,0,0,.678.677,5.367,5.367,0,0,1,1.341-1.038,5.429,5.429,0,0,1,1.587-.593.479.479,0,1,0-.255-.924Z" transform="translate(-3369.286 -503.141)" fill="#e89c62"/>
      <path id="Path_1363" data-name="Path 1363" d="M3424.019,569.794a4.8,4.8,0,0,0,.926-1.683c.186-.589-.739-.842-.924-.255a4.069,4.069,0,0,1-1.094,1.692,2.6,2.6,0,0,0-.9,1.818,3.4,3.4,0,0,0,2.3,3.015.5.5,0,0,0,.656-.172.482.482,0,0,0-.171-.655c-.943-.411-2.047-1.247-1.8-2.426C3423.132,570.55,3423.657,570.219,3424.019,569.794Z" transform="translate(-3381.474 -531.374)" fill="#e89c62"/>
      <path id="Path_1364" data-name="Path 1364" d="M3423.326,595.656a11.171,11.171,0,0,0,7.576.479,9.443,9.443,0,0,0,5.246-4.027c.323-.527-.505-1.009-.827-.483a8.441,8.441,0,0,1-4.791,3.622,10.371,10.371,0,0,1-6.95-.515.483.483,0,0,0-.589.335A.491.491,0,0,0,3423.326,595.656Z" transform="translate(-3382.118 -547.627)" fill="#e89c62"/>
      <path id="Path_1365" data-name="Path 1365" d="M3432.445,548.973l-11.754,4.313a2.84,2.84,0,0,0-1.308-1.115,3.466,3.466,0,0,0-2.492-.171,2.452,2.452,0,0,0-1.471,1.056c-.122.2-.233.408-.365.6a2.975,2.975,0,0,0-.178.3,2.7,2.7,0,0,0-.531-.3,5.075,5.075,0,0,0-1.382-.279,4.6,4.6,0,0,0-3.267.9.7.7,0,0,0-.093.086,2.411,2.411,0,0,0-.026-.393,1.955,1.955,0,0,0-.744-1.232,3.25,3.25,0,0,0-1.427-.734,3.331,3.331,0,0,0-1.732.122,2.15,2.15,0,0,0-1.2,1.065,3.232,3.232,0,0,0-.547,1.516,2.511,2.511,0,0,0,2.028,2.459,3.407,3.407,0,0,0,3.35-1.372.4.4,0,0,0,.117-.163.387.387,0,0,0,.04-.169c.03-.165.062-.331.088-.5a.477.477,0,0,0,.631.139,3.78,3.78,0,0,1,2.7-.782,4.269,4.269,0,0,1,1.1.21,1.948,1.948,0,0,1,.712.518,3.221,3.221,0,0,0,.4,1.438,3.458,3.458,0,0,0,1.439,1.476,3.355,3.355,0,0,0,3.727-.836,3.305,3.305,0,0,0,.7-2.935L3432.7,549.9C3433.273,549.686,3433.025,548.76,3432.445,548.973Zm-25.971,7.316a1.624,1.624,0,0,1-1.576-1.315,1.543,1.543,0,0,1,.268-1.037,1.71,1.71,0,0,1,.653-.825,2.323,2.323,0,0,1,1.141-.193,2.019,2.019,0,0,1,1.031.39,1.315,1.315,0,0,1,.653.843c0,.009,0,.013,0,.019s0,.014,0,.026c0,.045,0,.09,0,.135,0,.082,0,.164-.012.246-.019.2-.065.445-.107.675A2.515,2.515,0,0,1,3406.474,556.289Zm13.289-.021a3.247,3.247,0,0,1-1.032.8,2.042,2.042,0,0,1-1.448.173,2.467,2.467,0,0,1-1.639-2.365.961.961,0,0,1,.128-.56c.124-.2.263-.4.38-.606a1.483,1.483,0,0,1,.994-.783,2.53,2.53,0,0,1,1.639.032c.412.146,1.024.546,1.128.9a4.639,4.639,0,0,1,.133,1.293A1.8,1.8,0,0,1,3419.763,556.268Z" transform="translate(-3369.153 -518.726)" fill="#e89c62"/>
    </g>
  </g>
</svg>
