<svg xmlns="http://www.w3.org/2000/svg" width="66.173" height="60" viewBox="0 0 66.173 60">
  <g id="Group_323" data-name="Group 323" transform="translate(-2031.008 -391.018)">
    <g id="Group_168" data-name="Group 168" transform="translate(2031.008 391.018)">
      <path id="Path_60" data-name="Path 60" d="M2097.182,392.873v43.72c-.659,1.4-1.836,1.712-3.278,1.71q-29.87-.032-59.741-.016c-2.439,0-3.153-.719-3.153-3.16q0-20.5,0-40.991c0-2.42.659-3.1,3.035-3.1q30,0,60-.023C2095.551,391.016,2096.648,391.385,2097.182,392.873Zm-4.668,3.563h-56.845v31.112h56.845Z" transform="translate(-2031.008 -391.018)" fill="#fff"/>
      <path id="Path_61" data-name="Path 61" d="M2122.161,587.628c0,1.393.057,2.721-.017,4.042-.067,1.212.477,1.619,1.608,1.582,1.248-.041,2.5.053,3.748-.028a1.346,1.346,0,0,1,1.632,1.195c.16.7.434,1.368.69,2.149h-30.67a21.3,21.3,0,0,1,.967-2.64,1.57,1.57,0,0,1,1.111-.647c.983-.094,1.979-.034,2.971-.036,3.074-.007,2.636.206,2.667-2.733.01-.936,0-1.872,0-2.882Z" transform="translate(-2081.454 -536.567)" fill="#fff"/>
    </g>
    <g id="Group_169" data-name="Group 169" transform="translate(2052.478 399.228)">
      <path id="Path_62" data-name="Path 62" d="M2122.792,497.872c-.91-.066-1.825-.086-2.728-.209-1.694-.23-3.392-.465-5.066-.8-1.323-.267-1.545-.774-1.136-2.093a5.663,5.663,0,0,1,2.836-3.218c1.208-.687,2.491-1.246,3.779-1.88l3.606,4.98c.093-1.123.176-2.132.261-3.164h1.892c.084,1.029.166,2.035.259,3.18l3.559-4.917c2.062.862,4.174,1.606,5.714,3.338a4.122,4.122,0,0,1,1.106,2.661.718.718,0,0,1-.5.82,23.9,23.9,0,0,1-3.131.78c-1.662.226-3.345.3-5.018.445-.146.013-.291.051-.436.078Z" transform="translate(-2113.677 -472.259)" fill="#fff"/>
      <path id="Path_63" data-name="Path 63" d="M2147.037,429.371c.676.25.9.568.729,1.274-.216.914-.379,1.882-1.345,2.393-.089.047-.137.213-.164.334a10.456,10.456,0,0,1-1.1,2.982,2.516,2.516,0,0,0-.106,1.362.82.82,0,0,1-.613,1,2.644,2.644,0,0,0-1.26.656c-.24.33-.146.9-.2,1.4h-1.8a1.064,1.064,0,0,1-.035-.3,1.244,1.244,0,0,0-1.03-1.6,7.214,7.214,0,0,1-.977-.459c0-.073,0-.151,0-.229a3.9,3.9,0,0,0-.516-2.62,3.908,3.908,0,0,1-.468-1.255,3.558,3.558,0,0,0-.9-1.725,4.578,4.578,0,0,1-.854-2.173c-.135-.59.112-.814.652-.978a15.635,15.635,0,0,1,.04-2.884,5.811,5.811,0,0,0-.13-2.448c1.678-.465,3.293-.958,4.932-1.35a2.393,2.393,0,0,1,2.668.765.383.383,0,0,0,.255.122c1.428.076,2,1.07,2.317,2.25a6.144,6.144,0,0,1-.022,3.113C2147.092,429.106,2147.069,429.22,2147.037,429.371Z" transform="translate(-2130.476 -422.631)" fill="#fff"/>
    </g>
  </g>
</svg>
